_________ _        _______           _______  _______                    ______
\__   __/( (    /|(  ____ \|\     /|(  ____ )(  ____ \|\     /||\     /|(  ___ \
   ) (   |  \  ( || (    \/| )   ( || (    )|| (    \/| )   ( || )   ( || (   ) )
   | |   |   \ | || (_____ | |   | || (____)|| (__    | (___) || |   | || (__/ /
   | |   | (\ \) |(_____  )| |   | ||     __)|  __)   |  ___  || |   | ||  __ (
   | |   | | \   |      ) || |   | || (\ (   | (      | (   ) || |   | || (  \ \
___) (___| )  \  |/\____) || (___) || ) \ \__| (____/\| )   ( || (___) || )___) )
\_______/|/    )_)\_______)(_______)|/   \__/(_______/|/     \|(_______)|/ \___/
